<?xml version="1.0" encoding="UTF-8" standalone="no"?>
<svg
   xmlns:dc="http://purl.org/dc/elements/1.1/"
   xmlns:cc="http://creativecommons.org/ns#"
   xmlns:rdf="http://www.w3.org/1999/02/22-rdf-syntax-ns#"
   xmlns:svg="http://www.w3.org/2000/svg"
   xmlns="http://www.w3.org/2000/svg"
   xmlns:sodipodi="http://sodipodi.sourceforge.net/DTD/sodipodi-0.dtd"
   xmlns:inkscape="http://www.inkscape.org/namespaces/inkscape"
   height="32px"
   version="1.1"
   viewBox="0 0 32 32"
   width="32px"
   id="svg6376"
   sodipodi:docname="if_icon-2-mail-envelope-open_314213.svg"
   inkscape:version="0.92.3 (2405546, 2018-03-11)">
  <metadata
     id="metadata6380">
    <rdf:RDF>
      <cc:Work
         rdf:about="">
        <dc:format>image/svg+xml</dc:format>
        <dc:type
           rdf:resource="http://purl.org/dc/dcmitype/StillImage" />
      </cc:Work>
    </rdf:RDF>
  </metadata>
  <sodipodi:namedview
     pagecolor="#ffffff"
     bordercolor="#666666"
     borderopacity="1"
     objecttolerance="10"
     gridtolerance="10"
     guidetolerance="10"
     inkscape:pageopacity="0"
     inkscape:pageshadow="2"
     inkscape:window-width="2560"
     inkscape:window-height="1017"
     id="namedview6378"
     showgrid="false"
     inkscape:zoom="29.5"
     inkscape:cx="16"
     inkscape:cy="21.423729"
     inkscape:window-x="-8"
     inkscape:window-y="-8"
     inkscape:window-maximized="1"
     inkscape:current-layer="svg6376" />
  <title
     id="title6367" />
  <desc
     id="desc6369" />
  <defs
     id="defs6371" />
  <g
     id="Page-1"
     style="fill:#56ffaa;fill-rule:evenodd;stroke:none;stroke-width:1;stroke-opacity:1;fill-opacity:1">
    <g
       id="icon-2-mail-envelope-open"
       style="fill:#56ffaa;stroke:none;stroke-opacity:1;fill-opacity:1">
      <path
         d="m 20.638152,20 -2.217583,1.982789 0.09938,-5.19e-4 v 0 L 18.5,22.000001 h -3.378507 l 1.696697,-0.0089 v 0 L 14.551004,21.98031 12.306653,20 Z M 21.756567,19 25,16.099976 V 8.0086258 C 25,7.4515771 24.545291,7 24.00004,7 H 8.9999602 C 8.4476974,7 8,7.4437357 8,8.002076 v 8.197936 L 11.17332,19 Z M 13.090909,6 16.5,3 19.909091,6 h 4.093487 C 25.109075,6 26,6.8952581 26,7.999615 V 11.36 L 29,14 V 28.00594 C 29,29.105486 28.10296,30 26.996405,30 H 6.0035949 C 4.8897632,30 4,29.107229 4,28.00594 V 14 L 7,11.36 V 7.999615 C 7,6.8874333 7.8942762,6 8.9974219,6 Z M 18.427835,6 16.5,4.3000002 14.572165,6 Z M 26,12.677273 27.5,14 26,15.333334 Z M 7,15.333334 5.5,14 7,12.677273 Z M 13.5,23 l -7,6 h 20 l -7,-6 z M 27.68514,28.72517 20,22.01709 28,15 v 6.50002 6.50002 c 0,0.283114 -0.121005,0.541817 -0.31486,0.72513 z m -22.37028,0 L 13,22.01709 5,15 v 6.50002 6.50002 c 0,0.283114 0.1210051,0.541817 0.31486,0.72513 z M 10,10 v 1 h 13 v -1 z m 0,3 v 1 h 13 v -1 z m 0,3 v 1 h 13 v -1 z"
         id="mail-envelope-open"
         inkscape:connector-curvature="0"
         style="stroke:none;stroke-opacity:1;fill:#56ffaa;fill-opacity:1" />
    </g>
  </g>
</svg>
